[gd_scene load_steps=2 format=2]

[ext_resource path="res://Scenes/Player.tscn" type="PackedScene" id=1]

[node name="Level 1" type="Node2D"]

[node name="Player" parent="." instance=ExtResource( 1 )]
position = Vector2( 144.475, 47.5724 )
speed = 300
